nm-applet-Message: 20:41:07.262: No keyring secrets found for MGS21109 1/802-11-wireless-security; asking user.

(nm-applet:3598318): Gtk-WARNING **: 21:12:00.163: Failed to measure available space: Error getting filesystem info for /media/anton/E79F-76AC: No such file or directory

(nm-applet:3598318): Gtk-WARNING **: 21:12:00.165: Failed to measure available space: Error getting filesystem info for /media/anton/E79F-76AC: No such file or directory

(nm-applet:3598318): Gtk-WARNING **: 21:39:55.736: Failed to measure available space: Error getting filesystem info for /media/anton/Ubuntu 22.04.1 LTS amd64: No such file or directory

(nm-applet:3598318): Gtk-WARNING **: 21:39:55.739: Failed to measure available space: Error getting filesystem info for /media/anton/Ubuntu 22.04.1 LTS amd64: No such file or directory

(nm-applet:3598318): Gtk-WARNING **: 21:42:14.875: Failed to measure available space: Error getting filesystem info for /media/anton/Ubuntu 22.04.1 LTS amd64: No such file or directory

(nm-applet:3598318): Gtk-WARNING **: 21:42:14.875: Failed to measure available space: Error getting filesystem info for /media/anton/Ubuntu 22.04.1 LTS amd64: No such file or directory

(nm-applet:3598318): Gtk-WARNING **: 21:42:14.880: Failed to measure available space: Error getting filesystem info for /media/anton/Ubuntu 22.04.1 LTS amd64: No such file or directory

(nm-applet:3598318): Gtk-WARNING **: 21:42:14.880: Failed to measure available space: Error getting filesystem info for /media/anton/Ubuntu 22.04.1 LTS amd64: No such file or directory

(nm-applet:3598318): Gtk-WARNING **: 21:46:23.173: Failed to measure available space: Error getting filesystem info for /media/anton/F7F7-1381: No such file or directory

(nm-applet:3598318): Gtk-WARNING **: 21:46:23.176: Failed to measure available space: Error getting filesystem info for /media/anton/F7F7-1381: No such file or directory
